[api-updater (non-obsolete-error-filter)] 4/4/2022 23:17:30 : Starting /Applications/Unity/Hub/Editor/2020.3.31f1/Unity.app/Contents/Tools/ScriptUpdater/APIUpdater.NonObsoleteApiUpdaterDetector.exe
[api-updater (non-obsolete-error-filter)] 
----------------------------------
jit/startup time      : 137.023ms
moved types parse time: 51ms
candidates parse time : 1ms
C# parse time         : 281ms
candidates check time : 34ms
console write time    : 0ms

[api-updater (non-obsolete-error-filter)] 5/4/2022 17:20:19 : Starting /Applications/Unity/Hub/Editor/2020.3.31f1/Unity.app/Contents/Tools/ScriptUpdater/APIUpdater.NonObsoleteApiUpdaterDetector.exe
[api-updater (non-obsolete-error-filter)] 
----------------------------------
jit/startup time      : 159.432ms
moved types parse time: 65ms
candidates parse time : 1ms
C# parse time         : 293ms
candidates check time : 41ms
console write time    : 1ms

[api-updater (non-obsolete-error-filter)] 5/4/2022 21:26:09 : Starting /Applications/Unity/Hub/Editor/2020.3.31f1/Unity.app/Contents/Tools/ScriptUpdater/APIUpdater.NonObsoleteApiUpdaterDetector.exe
[api-updater (non-obsolete-error-filter)] 
----------------------------------
jit/startup time      : 135.77ms
moved types parse time: 56ms
candidates parse time : 1ms
C# parse time         : 288ms
candidates check time : 32ms
console write time    : 0ms

[api-updater (non-obsolete-error-filter)] 5/4/2022 21:27:19 : Starting /Applications/Unity/Hub/Editor/2020.3.31f1/Unity.app/Contents/Tools/ScriptUpdater/APIUpdater.NonObsoleteApiUpdaterDetector.exe
[api-updater (non-obsolete-error-filter)] 
----------------------------------
jit/startup time      : 114.322ms
moved types parse time: 58ms
candidates parse time : 1ms
C# parse time         : 273ms
candidates check time : 33ms
console write time    : 0ms

